<?xml version="1.0" encoding="UTF-8" standalone="no"?>
<svg width="24px" height="6px" viewBox="0 0 24 6" version="1.1" xmlns="http://www.w3.org/2000/svg" xmlns:xlink="http://www.w3.org/1999/xlink">
    <!-- Generator: sketchtool 39.1 (31720) - http://www.bohemiancoding.com/sketch -->
    <title>5339FC5F-3ED0-4EEF-84D8-2CA28A46D64A</title>
    <desc>Created with sketchtool.</desc>
    <defs></defs>
    <g id="Final" stroke="none" stroke-width="1" fill="none" fill-rule="evenodd">
        <g id="Commenting_Reply_Pinned" transform="translate(-677.000000, -348.000000)" fill="#C9D8DF">
            <g id="Indicator_Icon" transform="translate(677.000000, 348.000000)">
                <path d="M21,5.999 C19.343,5.999 18,4.656 18,2.999 C18,1.343 19.343,0 21,0 C22.657,0 24,1.343 24,2.999 C24,4.656 22.657,5.999 21,5.999 L21,5.999 Z" id="IndicatorTwo"></path>
                <path d="M12,5.999 C10.343,5.999 9,4.656 9,2.999 C9,1.343 10.343,0 12,0 C13.657,0 15,1.343 15,2.999 C15,4.656 13.657,5.999 12,5.999 L12,5.999 Z" id="IndicatorThree" fill-opacity="0.75"></path>
                <path d="M3,5.999 C1.343,5.999 0,4.656 0,2.999 C0,1.343 1.343,0 3,0 C4.657,0 6,1.343 6,2.999 C6,4.656 4.657,5.999 3,5.999 L3,5.999 Z" id="IndicatorOne" fill-opacity="0.5"></path>
            </g>
        </g>
    </g>
</svg>